riscV_ss_versionR/project_1/project_1.sim/sim_1/behav/xsim/simulate.log
Time resolution is 1 ps
Read Address: xxxxxxxx, Instruction: xxxxxxxx
Time = 0 | Instruction = xxxxxxxx | Rd1 =          x | Rd2 =          x | ALU Result (address_top) =          x | Control Signal = xxxx
Read Address: 00000000, Instruction: 00000013
Time = 5000 | Instruction = 00000013 | Rd1 =          0 | Rd2 =          0 | ALU Result (address_top) =          0 | Control Signal = 0010
Read Address: 00000004, Instruction: 00500293
Time = 15000 | Instruction = 00500293 | Rd1 =          0 | Rd2 =          0 | ALU Result (address_top) =          5 | Control Signal = 0010
Time = 20000 | Instruction = 00500293 | Rd1 =          0 | Rd2 =          5 | ALU Result (address_top) =          5 | Control Signal = 0010
Read Address: 00000008, Instruction: 00600313
Time = 25000 | Instruction = 00600313 | Rd1 =          0 | Rd2 =          0 | ALU Result (address_top) =          6 | Control Signal = 0010
Time = 30000 | Instruction = 00600313 | Rd1 =          0 | Rd2 =          6 | ALU Result (address_top) =          6 | Control Signal = 0010
Read Address: 0000000c, Instruction: 006282b3
Time = 35000 | Instruction = 006282b3 | Rd1 =          5 | Rd2 =          6 | ALU Result (address_top) =         11 | Control Signal = 0010
Time = 40000 | Instruction = 006282b3 | Rd1 =         11 | Rd2 =          6 | ALU Result (address_top) =         17 | Control Signal = 0010
Read Address: 00000010, Instruction: 00130313
Time = 45000 | Instruction = 00130313 | Rd1 =          6 | Rd2 =          0 | ALU Result (address_top) =          7 | Control Signal = 0010
Time = 50000 | Instruction = 00130313 | Rd1 =          7 | Rd2 =          0 | ALU Result (address_top) =          8 | Control Signal = 0010
Read Address: 00000014, Instruction: 00a00393
Time = 55000 | Instruction = 00a00393 | Rd1 =          0 | Rd2 =          0 | ALU Result (address_top) =         10 | Control Signal = 0010
Read Address: 00000018, Instruction: fe639ae3
Time = 65000 | Instruction = fe639ae3 | Rd1 =         10 | Rd2 =          7 | ALU Result (address_top) =          2 | Control Signal = 0000
Read Address: 0000001c, Instruction: 00a00793
Time = 75000 | Instruction = 00a00793 | Rd1 =          0 | Rd2 =          0 | ALU Result (address_top) =         10 | Control Signal = 0010
Read Address: 00000020, Instruction: 00000073
Time = 85000 | Instruction = 00000073 | Rd1 =          0 | Rd2 =          0 | ALU Result (address_top) =          0 | Control Signal = 0010
Read Address: 00000024, Instruction: 00000000
Time = 95000 | Instruction = 00000000 | Rd1 =          0 | Rd2 =          0 | ALU Result (address_top) =          0 | Control Signal = 0010
Read Address: 00000028, Instruction: 00000000
Read Address: 0000002c, Instruction: 00000000
Read Address: 00000030, Instruction: 00000000
Read Address: 00000034, Instruction: 00000000
Read Address: 00000038, Instruction: 00000000
Read Address: 0000003c, Instruction: 00000000
Read Address: 00000040, Instruction: 00000000
Read Address: 00000044, Instruction: 00000000
Read Address: 00000048, Instruction: 00000000
Read Address: 0000004c, Instruction: 00000000
Read Address: 00000050, Instruction: 00000000
Read Address: 00000054, Instruction: 00000000
Read Address: 00000058, Instruction: 00000000
Read Address: 0000005c, Instruction: 00000000
Read Address: 00000060, Instruction: 00000000
Read Address: 00000064, Instruction: 00000000
Read Address: 00000068, Instruction: 00000000
Read Address: 0000006c, Instruction: 00000000
Read Address: 00000070, Instruction: 00000000
Read Address: 00000074, Instruction: 00000000
Read Address: 00000078, Instruction: 00000000
Read Address: 0000007c, Instruction: 00000000
Read Address: 00000080, Instruction: 00000000
Read Address: 00000084, Instruction: 00000000
Read Address: 00000088, Instruction: 00000000
Read Address: 0000008c, Instruction: 00000000
Read Address: 00000090, Instruction: 00000000
Read Address: 00000094, Instruction: 00000000
Read Address: 00000098, Instruction: 00000000
Read Address: 0000009c, Instruction: 00000000
Read Address: 000000a0, Instruction: 00000000
Read Address: 000000a4, Instruction: 00000000
Read Address: 000000a8, Instruction: 00000000
Read Address: 000000ac, Instruction: 00000000
Read Address: 000000b0, Instruction: 00000000
Read Address: 000000b4, Instruction: 00000000
Read Address: 000000b8, Instruction: 00000000
Read Address: 000000bc, Instruction: 00000000
Read Address: 000000c0, Instruction: 00000000
Read Address: 000000c4, Instruction: 00000000
Read Address: 000000c8, Instruction: 00000000
$finish called at time : 512 ns : File "E:/UoM/Sem05/DSD/Project/Project-repo/riscv-processor-dsd-project/riscV_ss_versionR/project_1/project_1.srcs/sim_1/new/main_tb.v" Line 41
